{"uid":"bab858b82f39e7f3","name":"deve respeitar a paginação ao consultar a página 2","fullName":"projeto-automacao:cypress/tests/API/getUsers.cy.js#GET /api/users - Listagem e consulta de usuários Cenários positivos deve respeitar a paginação ao consultar a página 2","historyId":"0445d4ba355f163d6473e174480fc113:d41d8cd98f00b204e9800998ecf8427e","time":{"start":1782091147298,"stop":1782091147512,"duration":214},"status":"passed","flaky":false,"newFailed":false,"newBroken":false,"newPassed":false,"retriesCount":0,"retriesStatusChange":false,"beforeStages":[],"testStage":{"status":"passed","steps":[{"name":"request GET --- https://reqres.in/api/users?page=2","time":{"start":1782091147313,"stop":1782091147511,"duration":198},"status":"passed","steps":[],"attachments":[],"parameters":[{"name":"Request","value":"{\"Request Body\":null,\"Request Headers\":{\"Connection\":\"keep-alive\",\"x-api-key\":\"free_user_3FMiCHBgRAKZirdERPIQSWAj37G\",\"user-agen..."},{"name":"Yielded","value":"{\"status\":200,\"duration\":193,\"body\":{\"page\":2,\"per_page\":6,\"total\":12,\"total_pages\":2,\"data\":[null,null,null,null,null,null],\"su..."}],"stepsCount":0,"shouldDisplayMessage":false,"attachmentsCount":0,"hasContent":true,"attachmentStep":false},{"name":"assert status code: expected 200 to equal 200","time":{"start":1782091147513,"stop":1782091147513,"duration":0},"status":"passed","steps":[],"attachments":[],"parameters":[{"name":"actual","value":"200"},{"name":"expected","value":"200"}],"stepsCount":0,"shouldDisplayMessage":false,"attachmentsCount":0,"hasContent":true,"attachmentStep":false},{"name":"assert page: expected 2 to equal 2","time":{"start":1782091147514,"stop":1782091147515,"duration":1},"status":"passed","steps":[],"attachments":[],"parameters":[{"name":"actual","value":"2"},{"name":"expected","value":"2"}],"stepsCount":0,"shouldDisplayMessage":false,"attachmentsCount":0,"hasContent":true,"attachmentStep":false},{"name":"assert data: expected [ Array(6) ] to be an array","time":{"start":1782091147516,"stop":1782091147512,"duration":-4},"status":"passed","steps":[],"attachments":[],"parameters":[{"name":"actual","value":"[{\"id\":7,\"email\":\"michael.lawson@reqres.in\",\"first_name\":\"Michael\",\"last_name\":\"Lawson\",\"avatar\":\"https://reqres.in/img/faces/7-..."}],"stepsCount":0,"shouldDisplayMessage":false,"attachmentsCount":0,"hasContent":true,"attachmentStep":false}],"attachments":[],"parameters":[],"stepsCount":4,"shouldDisplayMessage":false,"attachmentsCount":0,"hasContent":true,"attachmentStep":false},"afterStages":[],"labels":[{"name":"language","value":"javascript"},{"name":"framework","value":"cypress"},{"name":"parentSuite","value":"GET /api/users - Listagem e consulta de usuários"},{"name":"suite","value":"Cenários positivos"},{"name":"host","value":"runnervm7b5n9"},{"name":"thread","value":"pid-2881-worker-main"},{"name":"package","value":"projeto-automacao.cypress.tests.API.getUsers.cy.js"},{"name":"_fallbackTestCaseId","value":"485700c3195df105b0e47a4b4afe03c6"},{"name":"resultFormat","value":"allure2"}],"parameters":[{"name":"Retry","value":"1"}],"links":[],"hidden":false,"retry":false,"extra":{"severity":"normal","retries":[],"categories":[],"tags":[]},"source":"bab858b82f39e7f3.json","parameterValues":["1"]}